[
    {
        "id": 1,
        "name": "Chanel Coco Mademoiselle",
        "price": 200,
        "image": "https://i.malva-parfume.ua/4x5x320/87/19/8719bee368cdd985491440809c705859.jpg",
        "isFavourite": false,
        "isAddedToCart": false
    },
    {
        "id": 2,
        "name": "Dior Saharienne J'adore Paris",
        "price": 150,
        "image": "https://i.malva-parfume.ua/4x5x320/fa/a4/faa4345b3201560b8120077d2c0609f8.jpg",
        "isFavourite": false,
        "isAddedToCart": false
    },
    {
        "id": 3,
        "name": "Gucci Flora Gorgeous Jasmine",
        "price": 200,
        "image": "https://i.malva-parfume.ua/4x5x320/76/bd/76bdf84601fa7171e1d073a153186b37.jpg",
        "isFavourite": false,
        "isAddedToCart": false
    },
    {
        "id": 4,
        "name": "Yves Saint Laurent Black Opium",
        "price": 235,
        "image": "https://i.malva-parfume.ua/4x5x320/bd/e5/bde5a742fee04163421dee3e15424e60.jpg",
        "isFavourite": false,
        "isAddedToCart": false
    },
    {
        "id": 5,
        "name": "Yves Saint Laurent Mon Paris",
        "price": 210,
        "image": "https://i.malva-parfume.ua/4x5x320/0e/c1/0ec1debde0ca324e618cd601cd9445ff.jpg",
        "isFavourite": false,
        "isAddedToCart": false
    },
    {
        "id": 6,
        "name": "Versace Yellow Diamond",
        "price": 180,
        "image": "https://i.malva-parfume.ua/4x5x320/59/95/599573ffd7b0e28dd47c01f3ceef6c9a.jpg",
        "isFavourite": false,
        "isAddedToCart": false
    },
    {
        "id": 7,
        "name": "Versace Bright Crystal Paris",
        "price": 200,
        "image": "https://i.malva-parfume.ua/4x5x320/8f/c4/8fc432ba70ce1814e5f2e771b35b997c.jpg",
        "isFavourite": false,
        "isAddedToCart": false
    },
    {
        "id": 8,
        "name": "Prada Saharienne Candy",
        "price": 340,
        "image": "https://i.malva-parfume.ua/4x5x320/b7/ff/b7ff736debb1b1c39c40eca1fca04cf7.jpg",
        "isFavourite": false,
        "isAddedToCart": false
    },
    {
        "id": 9,
        "name": "Bvlgari Omnia Amethyste",
        "price": 300,
        "image": "https://i.malva-parfume.ua/4x5x320/99/a1/99a178d823abcbad85e798b167caa917.jpg",
        "isFavourite": false,
        "isAddedToCart": false
    },
    {
        "id": 10,
        "name": "Yves Saint Laurent Saharienne",
        "price": 280,
        "image": "https://i.malva-parfume.ua/4x5x320/fe/6e/fe6e3da914f4d8320c75c0fcdb2d7e01.jpg",
        "isFavourite": false,
        "isAddedToCart": false
    }
]